Reproducible Research with GitHub and rrtools - Manage functionality as a package
…
Then let’s read in some data and test out our function:

library(rrcompendium) 
data <- readr::read_csv(here::here("analysis", "data", 
                                   "raw_data", "gillespie.csv")) 

Rows: 768 Columns: 9                                                                 
── Column specification ───────────────────────────────────────────────────────────────
Delimiter: ","
dbl (9): Pregnancies, Glucose, BloodPressure, SkinThickness, Insulin, BMI, Diabetes...

data

# A tibble: 768 × 9
   Pregnancies Glucose BloodPressure SkinThickness Insulin   BMI Diabet…¹   Age Outcome
         <dbl>   <dbl>         <dbl>         <dbl>   <dbl> <dbl>    <dbl> <dbl>   <dbl>
 1           6     148            72            35       0  33.6    0.627    50       1
 2           1      85            66            29       0  26.6    0.351    31       0
 3           8     183            64             0       0  23.3    0.672    32       1
 4           1      89            66            23      94  28.1    0.167    21       0
 5           0     137            40            35     168  43.1    2.29     33       1
 6           5     116            74             0       0  25.6    0.201    30       0
 7           3      78            50            32      88  31      0.248    26       1
 8          10     115             0             0       0  35.3    0.134    29       0
 9           2     197            70            45     543  30.5    0.158    53       1
10           8     125            96             0       0   0      0.232    54       1
# … with 758 more rows, and abbreviated variable name ¹​DiabetesPedigreeFunction

group_age(data) 

# A tibble: 768 × 9
   Pregnancies Glucose BloodPressure SkinThickness Insulin   BMI Diabet…¹ Age   Outcome
         <dbl>   <dbl>         <dbl>         <dbl>   <dbl> <dbl>    <dbl> <chr>   <dbl>
 1           6     148            72            35       0  33.6    0.627 Elde…       1
 2           1      85            66            29       0  26.6    0.351 Elde…       0
 3           8     183            64             0       0  23.3    0.672 Elde…       1
 4           1      89            66            23      94  28.1    0.167 Elde…       0
 5           0     137            40            35     168  43.1    2.29  Elde…       1
 6           5     116            74             0       0  25.6    0.201 Elde…       0
 7           3      78            50            32      88  31      0.248 Elde…       1
 8          10     115             0             0       0  35.3    0.134 Elde…       0
 9           2     197            70            45     543  30.5    0.158 Elde…       1
10           8     125            96             0       0   0      0.232 Elde…       1
# … with 758 more rows, and abbreviated variable name ¹DiabetesPedigreeFunction
…
